{
  "count": 3347,
  "next": "https://hub.docker.com/v2/repositories/repo/someImage/tags?page=2&page_size=3",
  "previous": null,
  "results": [
    {
      "creator": 697230,
      "id": 2669311,
      "images": [
        {
          "architecture": "arm64",
          "features": "",
          "variant": null,
          "digest": "sha256:f90a02ddf24a6ccaf88305e2ccf171108525dacadf14b18fbe9ed90880e361e8",
          "os": "linux",
          "os_features": "",
          "os_version": null,
          "size": 501544505,
          "status": "active",
          "last_pulled": "2024-06-05T12:24:54.871614Z",
          "last_pushed": "2024-05-24T20:53:37.351563Z"
        },
        {
          "architecture": "amd64",
          "features": "",
          "variant": null,
          "digest": "sha256:64a818e03e1061bb148eb90fcf935bab77c3648831c6dcd637ae7a79b768fe23",
          "os": "linux",
          "os_features": "",
          "os_version": null,
          "size": 517876049,
          "status": "active",
          "last_pulled": "2024-06-05T12:57:58.545779Z",
          "last_pushed": "2024-05-24T20:53:37.963976Z"
        },
        {
          "architecture": "arm",
          "features": "",
          "variant": "v6",
          "digest": "sha256:084e4b0fd5f5230a60cd234b98b4755975a0abb0f3eb16956b968c3c464bb2b4",
          "os": "linux",
          "os_features": "",
          "os_version": null,
          "size": 488084719,
          "status": "active",
          "last_pulled": "2024-06-05T13:05:54.376753Z",
          "last_pushed": "2024-05-24T20:53:38.563361Z"
        },
        {
          "architecture": "arm",
          "features": "",
          "variant": "v7",
          "digest": "sha256:001e28265418f2d563ece1962c69ac7277e798c7f5d4afd97e86dfa3a6aa0202",
          "os": "linux",
          "os_features": "",
          "os_version": null,
          "size": 473037954,
          "status": "active",
          "last_pulled": "2024-06-05T12:09:41.66193Z",
          "last_pushed": "2024-05-24T20:53:39.240552Z"
        },
        {
          "architecture": "386",
          "features": "",
          "variant": null,
          "digest": "sha256:f6793152ef0b4073cfb4aea6d2d609c50b0b231255b66ceee304f43a66a53a83",
          "os": "linux",
          "os_features": "",
          "os_version": null,
          "size": 511564328,
          "status": "active",
          "last_pulled": "2024-06-05T13:05:55.535216Z",
          "last_pushed": "2024-05-24T20:53:39.851969Z"
        }
      ],
      "last_updated": "2024-05-24T20:44:26.118861Z",
      "last_updater": 1554036,
      "last_updater_username": "pvizeli",
      "name": "latest",
      "repository": 637102,
      "full_size": 501544505,
      "v2": true,
      "tag_status": "active",
      "tag_last_pulled": "2024-06-05T13:05:55.535216Z",
      "tag_last_pushed": "2024-05-24T20:44:26.118861Z",
      "media_type": "application/vnd.docker.distribution.manifest.list.v2+json",
      "content_type": "image",
      "digest": "sha256:031d355a2e52e82fc33cd6854753fb19fc5d6a31af6f0f54c277d6f118ad993e"
    },
    {
      "creator": 1554036,
      "id": 688391408,
      "images": [
        {
          "architecture": "",
          "features": "",
          "variant": null,
          "digest": "sha256:c3ca3e6fb2eebf990abcf1c6dbc0241083b7abc51b68e8dc6db2c3a456b88deb",
          "os": "",
          "os_features": "",
          "os_version": null,
          "size": 520,
          "status": "active",
          "last_pulled": "2024-06-05T12:54:38.219164Z",
          "last_pushed": "2024-06-05T02:43:18.442821Z"
        }
      ],
      "last_updated": "2024-06-05T02:43:18.442821Z",
      "last_updater": 1554036,
      "last_updater_username": "pvizeli",
      "name": "fooo",
      "repository": 637102,
      "full_size": 520,
      "v2": true,
      "tag_status": "active",
      "tag_last_pulled": "2024-06-05T12:54:38.219164Z",
      "tag_last_pushed": "2024-06-05T02:43:18.442821Z",
      "media_type": "application/vnd.oci.image.config.v1+json",
      "content_type": "image",
      "digest": "sha256:c3ca3e6fb2eebf990abcf1c6dbc0241083b7abc51b68e8dc6db2c3a456b88deb"
    },
    {
      "creator": 697230,
      "id": 2669404,
      "images": [
        {
          "architecture": "arm64",
          "features": "",
          "variant": null,
          "digest": "sha256:1c3b46356281ef73559f0b89a14f57ef1d76c90c5aac164667afbfa3cf8d8f8a",
          "os": "linux",
          "os_features": "",
          "os_version": null,
          "size": 569108099,
          "status": "active",
          "last_pulled": "2024-06-05T04:00:04.876122Z",
          "last_pushed": "2024-06-05T02:43:10.973566Z"
        },
        {
          "architecture": "amd64",
          "features": "",
          "variant": null,
          "digest": "sha256:9a70e18ed365a6e4cfd4440a485d8de7f80239c3211800ade4520e33692b5822",
          "os": "linux",
          "os_features": "",
          "os_version": null,
          "size": 585777618,
          "status": "active",
          "last_pulled": "2024-06-05T13:00:38.052001Z",
          "last_pushed": "2024-06-05T02:43:11.751644Z"
        },
        {
          "architecture": "arm",
          "features": "",
          "variant": "v6",
          "digest": "sha256:d6484c91e30bb1acb484e812c809e0b13764c3665767728956aabed63d5c1cec",
          "os": "linux",
          "os_features": "",
          "os_version": null,
          "size": 556643809,
          "status": "active",
          "last_pulled": "2024-06-05T02:39:50.35991Z",
          "last_pushed": "2024-06-05T02:43:12.501933Z"
        },
        {
          "architecture": "arm",
          "features": "",
          "variant": "v7",
          "digest": "sha256:709c36bd84f5b13f34ea968f2e0dad2469c948f8f8c0d7600e715cc2fb043f0a",
          "os": "linux",
          "os_features": "",
          "os_version": null,
          "size": 540682326,
          "status": "active",
          "last_pulled": "2024-06-05T02:39:50.630035Z",
          "last_pushed": "2024-06-05T02:43:13.284946Z"
        },
        {
          "architecture": "386",
          "features": "",
          "variant": null,
          "digest": "sha256:a36231da90889b316003a77cc4b55c057f763a00b3f633babe240618f732c92a",
          "os": "linux",
          "os_features": "",
          "os_version": null,
          "size": 579490143,
          "status": "active",
          "last_pulled": "2024-06-05T02:39:51.178268Z",
          "last_pushed": "2024-06-05T02:43:14.030783Z"
        }
      ],
      "last_updated": "2024-06-05T02:43:14.82111Z",
      "last_updater": 1554036,
      "last_updater_username": "pvizeli",
      "name": "dev",
      "repository": 637102,
      "full_size": 569108099,
      "v2": true,
      "tag_status": "active",
      "tag_last_pulled": "2024-06-05T13:00:38.052001Z",
      "tag_last_pushed": "2024-06-05T02:43:14.82111Z",
      "media_type": "application/vnd.docker.distribution.manifest.list.v2+json",
      "content_type": "image",
      "digest": "sha256:d3fc40fe2a240f3f7409b748b427d7d0ca8a3384314916f5574751c0a7251122"
    }
  ]
}